<?xml version="1.0" encoding="UTF-8"?>
<svg width="221px" height="66px" viewBox="0 0 221 66" version="1.1" xmlns="http://www.w3.org/2000/svg" xmlns:xlink="http://www.w3.org/1999/xlink">
    <!-- Generator: Sketch 52.5 (67469) - http://www.bohemiancoding.com/sketch -->
    <title>logo-320-on</title>
    <desc>Created with Sketch.</desc>
    <g id="Page-1" stroke="none" stroke-width="1" fill="none" fill-rule="evenodd">
        <g id="producton-land-320" transform="translate(-16.000000, -259.000000)">
            <g id="logo-320" transform="translate(16.000000, 259.000000)">
                <path d="M175.654141,9.70141414 C180.23378,9.70186336 184.362278,12.4607735 186.114769,16.6918327 C187.86726,20.922892 186.898675,25.7929973 183.660606,29.0315152 C179.238758,33.4533635 172.069525,33.4533635 167.647677,29.0315152 C163.225828,24.6096668 163.225828,17.4404342 167.647677,13.0185859 C169.767044,10.8894346 172.649991,9.69645075 175.654141,9.70545455 L175.654141,9.70141414 Z M175.654141,28.1967677 C179.61274,28.1967677 182.821818,24.9876895 182.821818,21.0290909 C182.821818,17.0704923 179.61274,13.8614141 175.654141,13.8614141 C171.695543,13.8614141 168.486465,17.0704923 168.486465,21.0290909 C168.490918,24.9858434 171.697389,28.1923144 175.654141,28.1967677 Z M175.654141,9.0589899 C170.81456,9.06073108 166.452246,11.9766876 164.60024,16.4478869 C162.748235,20.9190862 163.771016,26.0655912 167.191919,29.4888889 C171.873972,34.1181308 179.415822,34.0965634 184.071322,29.440619 C188.726821,24.7846745 188.747669,17.2428228 184.11798,12.5612121 C181.87804,10.3092236 178.830415,9.04670271 175.654141,9.05494949 L175.654141,9.0589899 Z M175.654141,27.550303 C172.052575,27.550303 169.132929,24.6306569 169.132929,21.0290909 C169.132929,17.4275249 172.052575,14.5078788 175.654141,14.5078788 C179.255707,14.5078788 182.175354,17.4275249 182.175354,21.0290909 C182.170901,24.6288111 179.253862,27.5458507 175.654141,27.550303 Z" id="Shape-Copy-2" fill="#00E0C8" fill-rule="nonzero"></path>
                <path d="M211.255758,9.81616162 L211.255758,32.030303 L207.163636,32.030303 L196.511515,18.0553535 L195.351111,16.5329293 L195.351111,32.030303 L191.19596,32.030303 L191.19596,9.9220202 L195.536162,9.9220202 L205.939394,23.569697 L207.099798,25.0929293 L207.099798,9.81616162 L211.255758,9.81616162 Z M211.902222,9.16969697 L206.453333,9.16969697 L206.453333,23.1777778 L195.856162,9.27878788 L190.549495,9.27878788 L190.549495,32.6767677 L195.997576,32.6767677 L195.997576,18.4472727 L206.843636,32.6767677 L211.902222,32.6767677 L211.902222,9.16969697 Z" id="Shape-Copy" fill="#00E0C8" fill-rule="nonzero"></path>
                <path d="M10.9090909,9.27555556 L0.0266666667,9.27555556 C0.0119390733,9.27555556 1.80361e-18,9.28749463 0,9.30222222 L0,32.6929293 L5.44808081,32.6929293 L5.44808081,25.5228283 L10.8509091,25.5228283 C12.9916639,25.5247603 15.0452942,24.6752042 16.5590371,23.1614613 C18.07278,21.6477185 18.922336,19.5940882 18.920404,17.4533333 L18.920404,17.2917172 C18.9212969,12.8660368 15.334771,9.27734037 10.9090909,9.27555556 Z M5.44808081,20.0747475 L5.44808081,14.7236364 L10.8509091,14.7236364 C12.2981222,14.7249729 13.4709867,15.8978374 13.4723232,17.3450505 L13.4723232,17.4533333 C13.4709867,18.9005464 12.2981222,20.073411 10.8509091,20.0747475 L5.44808081,20.0747475 Z" id="Shape" fill="#FFFFFF" fill-rule="nonzero"></path>
                <path d="M38.4484848,24.4060606 C40.1051156,23.4278952 41.3601489,21.8927564 41.9894949,20.0747475 L40.2117172,20.0747475 C40.5008869,19.2310691 40.647805,18.3451913 40.6464646,17.4533333 L40.6464646,17.3450505 C40.6464648,12.8893381 37.0351062,9.27689414 32.5793939,9.27555556 L21.7551515,9.27555556 C21.7404239,9.27555556 21.7284848,9.28749463 21.7284848,9.30222222 L21.7284848,20.0747475 L23.5062626,20.0747475 L23.5062626,32.6929293 L28.9543434,32.6929293 L28.9543434,25.5228283 L32.6464646,25.5228283 L37.4311111,32.6929293 L43.9814141,32.6929293 L38.4484848,24.4060606 Z M27.1765657,20.0747475 L27.1765657,14.7236364 L32.5785859,14.7236364 C34.0259301,14.7249721 35.1990263,15.8977067 35.2008081,17.3450505 L35.2008081,17.4533333 C35.1990263,18.9006771 34.0259301,20.0734117 32.5785859,20.0747475 L27.1765657,20.0747475 Z" id="Shape" fill="#FFFFFF" fill-rule="nonzero"></path>
                <path d="M68.4307071,20.0747475 C67.9621804,13.8287361 62.7577007,9.00003382 56.4941414,9.00003382 C50.2305821,9.00003382 45.0261024,13.8287361 44.5575758,20.0747475 C44.5360269,20.3710438 44.5249832,20.6692256 44.5244444,20.9692929 C44.5244444,25.2455095 46.8057787,29.1968966 50.5090908,31.3350049 C54.212403,33.4731132 58.7750718,33.4731132 62.4783839,31.3350049 C66.1816961,29.1968966 68.4630304,25.2455095 68.4630303,20.9692929 C68.4630303,20.6697643 68.4522559,20.3715825 68.4307071,20.0747475 Z M56.4937374,27.4913131 C52.8995048,27.4864032 49.9888226,24.5705352 49.9903108,20.9762996 C49.991799,17.382064 52.9048948,14.4686072 56.4991302,14.4666737 C60.0933655,14.4647402 63.0095943,17.375061 63.0149495,20.9692929 C63.0109423,24.5693287 60.0937726,27.4868599 56.4937374,27.4913131 Z" id="Shape" fill="#FFFFFF" fill-rule="nonzero"></path>
                <path d="M94.0315152,20.0747475 L92.2537374,20.0747475 C91.8309053,13.9931757 86.7742329,9.27573276 80.6779798,9.27555556 L71.4068687,9.27555556 L71.4068687,20.0747475 L73.1846465,20.0747475 L73.1846465,32.6371717 C73.1846465,32.6518993 73.1965855,32.6638384 73.2113131,32.6638384 L82.509899,32.6638384 C85.5732627,32.6640527 88.5112323,31.4472865 90.6774333,29.281237 C92.8436343,27.1151875 94.0606061,24.1773031 94.0606061,21.1139394 L94.0606061,20.8787879 C94.0606061,20.6094276 94.0509091,20.3414141 94.0315152,20.0747475 Z M88.6117172,21.0589899 C88.6081548,24.4574867 85.8542539,27.2117492 82.4557576,27.2157576 L78.6327273,27.2157576 L78.6327273,20.0747475 L76.8549495,20.0747475 L76.8549495,14.7236364 L80.6779798,14.7236364 C83.7647555,14.7281878 86.3723578,17.0149767 86.779798,20.0747475 L88.5575758,20.0747475 C88.593339,20.3426275 88.6114253,20.6125717 88.6117172,20.8828283 L88.6117172,21.0589899 Z" id="Shape" fill="#FFFFFF" fill-rule="nonzero"></path>
                <path d="M117.528081,9.29656566 L117.528081,22.6783838 C117.527635,28.3755462 112.909284,32.9938972 107.212121,32.9943434 L107.004444,32.9943434 C101.336552,32.9943434 96.7418182,28.3996091 96.7418182,22.7317172 L96.7418182,9.29656566 L102.189899,9.29656566 L102.189899,22.6783838 C102.189899,25.3668391 104.369323,27.5462626 107.057778,27.5462626 L107.211313,27.5462626 C108.502635,27.5466914 109.741214,27.0340163 110.654468,26.1210655 C111.567722,25.2081146 112.080808,23.9697056 112.080808,22.6783838 L112.080808,9.29656566 L117.528081,9.29656566 Z" id="Path" fill="#FFFFFF"></path>
                <path d="M142.290101,29.4880808 C138.86685,32.910243 133.719399,33.9337071 129.247419,32.081348 C124.775439,30.2289889 121.859348,25.8654884 121.858586,21.0250505 C121.858586,20.7061279 121.870976,20.3893603 121.895758,20.0747475 L120.11798,20.0747475 C120.487686,15.4202668 123.530235,11.4056414 127.911431,9.79133364 C132.292628,8.17702587 137.212623,9.25775026 140.513939,12.559596 L136.661818,16.4117172 C134.903434,14.6541414 132.319192,14.0230303 129.784242,14.8828283 C129.659524,14.9254691 129.53731,14.9751103 129.418182,15.0315152 C127.173333,16.0925253 125.901414,18.0214141 125.602424,20.0731313 L127.380202,20.0731313 C126.989091,22.7511111 128.260202,25.6278788 131.19596,27.0153535 C131.3151,27.071495 131.437315,27.1208665 131.56202,27.1632323 C134.09697,28.0230303 136.681212,27.3927273 138.439596,25.6351515 L142.290101,29.4880808 Z" id="Path" fill="#FFFFFF"></path>
                <polygon id="Path" fill="#FFFFFF" points="162.342626 9.27555556 162.341818 14.7236364 155.475556 14.7236364 155.475556 32.6808081 150.027475 32.6808081 150.027475 14.7236364 143.397172 14.7228283 143.397172 9.27555556"></polygon>
                <g id="by_halyk" transform="translate(1.000000, 41.000000)" fill="#FFFFFF">
                    <path d="M1.36,6.75999847 L2.64,6.75999847 L2.64,11.6879985 L2.704,11.6879985 C2.9173344,11.1653292 3.22933128,10.7786664 3.64,10.5279985 C4.05066872,10.2773306 4.54399712,10.1519985 5.12,10.1519985 C5.63200256,10.1519985 6.09599792,10.2533308 6.512,10.4559985 C6.92800208,10.6586662 7.2826652,10.9466633 7.576,11.3199985 C7.8693348,11.6933337 8.09333256,12.1466625 8.248,12.6799985 C8.40266744,13.2133345 8.48,13.8106618 8.48,14.4719985 C8.48,15.1333351 8.40266744,15.7306625 8.248,16.2639985 C8.09333256,16.7973345 7.8693348,17.2506633 7.576,17.6239985 C7.2826652,17.9973337 6.92800208,18.2853308 6.512,18.4879985 C6.09599792,18.6906662 5.63200256,18.7919985 5.12,18.7919985 C3.9999944,18.7919985 3.19466912,18.2800036 2.704,17.2559985 L2.64,17.2559985 L2.64,18.5999985 L1.36,18.5999985 L1.36,6.75999847 Z M4.768,17.6399985 C5.49333696,17.6399985 6.06399792,17.4133341 6.48,16.9599985 C6.89600208,16.5066629 7.104,15.9120022 7.104,15.1759985 L7.104,13.7679985 C7.104,13.0319948 6.89600208,12.4373341 6.48,11.9839985 C6.06399792,11.5306629 5.49333696,11.3039985 4.768,11.3039985 C4.47999856,11.3039985 4.20533464,11.3439981 3.944,11.4239985 C3.68266536,11.5039989 3.45600096,11.6133311 3.264,11.7519985 C3.07199904,11.8906658 2.92000056,12.0586642 2.808,12.2559985 C2.69599944,12.4533328 2.64,12.6639974 2.64,12.8879985 L2.64,15.9599985 C2.64,16.2266665 2.69599944,16.4639974 2.808,16.6719985 C2.92000056,16.8799995 3.07199904,17.0559978 3.264,17.1999985 C3.45600096,17.3439992 3.68266536,17.4533314 3.944,17.5279985 C4.20533464,17.6026655 4.47999856,17.6399985 4.768,17.6399985 Z M15.728,10.3439985 L16.992,10.3439985 L13.296,20.5199985 C13.1999995,20.765333 13.1040005,20.9706643 13.008,21.1359985 C12.9119995,21.3013326 12.7946674,21.431998 12.656,21.5279985 C12.5173326,21.623999 12.344001,21.6933316 12.136,21.7359985 C11.927999,21.7786654 11.6746682,21.7999985 11.376,21.7999985 L10.72,21.7999985 L10.72,20.6799985 L12.016,20.6799985 L12.64,18.9199985 L9.552,10.3439985 L10.832,10.3439985 L12.816,15.9599985 L13.2,17.3039985 L13.28,17.3039985 L13.728,15.9599985 L15.728,10.3439985 Z" id="by" opacity="0.800000012"></path>
                    <g id="Group-31" transform="translate(22.000000, 7.000000)" fill-rule="nonzero">
                        <path d="M51.6817439,11.9934605 L48.3792916,11.9934605 L48.3792916,6.94495913 L42.0686649,1.77635684e-14 L45.3972752,1.77635684e-14 L50.0337875,5.04850136 L54.6637602,1.77635684e-14 L57.9923706,1.77635684e-14 L51.6817439,6.94495913 L51.6817439,11.9934605 Z M3.30245232,2.66453526e-14 L3.30245232,5.04850136 L12.5689373,5.04850136 L12.5689373,2.66453526e-14 L15.8975477,2.66453526e-14 L15.8975477,12 L12.5689373,12 L12.5689373,6.94495913 L3.30245232,6.94495913 L3.30245232,12 L3.2347458e-12,12 L3.2347458e-12,2.66453526e-14 L3.30245232,2.66453526e-14 Z M29.8201635,11.9934605 L28.8065395,10.0970027 L21.5149864,10.0970027 L20.5275204,11.9934605 L17.2250681,11.9934605 L23.5095368,2.48689958e-14 L26.8381471,2.48689958e-14 L33.1226158,11.9934605 L29.8201635,11.9934605 Z M25.1901907,3.1520436 L22.5286104,8.20054496 L27.8256131,8.20054496 L25.1901907,3.1520436 Z M62.2822888,1.77635684e-14 L62.2822888,5.04850136 L69.573842,1.77635684e-14 L73.2228883,1.77635684e-14 L64.6822888,6.00980926 L73.2228883,11.9934605 L69.573842,11.9934605 L62.2822888,6.94495913 L62.2822888,11.9934605 L58.9798365,11.9934605 L58.9798365,1.77635684e-14 L62.2822888,1.77635684e-14 Z M37.7591281,1.77635684e-14 L37.7591281,10.0970027 L47.0517711,10.0970027 L47.0517711,11.9934605 L34.4566757,11.9934605 L34.4566757,1.77635684e-14 L37.7591281,1.77635684e-14 Z" id="Combined-Shape"></path>
                    </g>
                </g>
            </g>
        </g>
    </g>
</svg>