<?xml version="1.0" encoding="UTF-8"?>
<svg width="24px" height="24px" viewBox="0 0 24 24" version="1.1" xmlns="http://www.w3.org/2000/svg" xmlns:xlink="http://www.w3.org/1999/xlink">
    <!-- Generator: Sketch 52.5 (67469) - http://www.bohemiancoding.com/sketch -->
    <title>telega</title>
    <desc>Created with Sketch.</desc>
    <g id="Page-1" stroke="none" stroke-width="1" fill="none" fill-rule="evenodd">
        <g id="producton-land-960" transform="translate(-770.000000, -24.000000)" fill="#FFFFFF" fill-rule="nonzero">
            <g id="Group-5">
                <g id="Group-16">
                    <g id="Group-2" transform="translate(730.000000, 14.000000)">
                        <g id="telegram" transform="translate(40.000000, 10.000000)">
                            <path d="M2.35326667,11.3763333 L6.96166667,13.0963333 L8.7454,18.8328 C8.85953333,19.2002 9.3088,19.336 9.607,19.0922 L12.1758,16.9980667 C12.4450667,16.7786667 12.8286,16.7677333 13.11,16.972 L17.7432,20.3358 C18.0622,20.5676667 18.5141333,20.3928667 18.5941333,20.0074 L21.9882,3.68133333 C22.0755333,3.26026667 21.6618,2.909 21.2608667,3.06406667 L2.34786667,10.3601333 C1.88113333,10.5401333 1.8852,11.2009333 2.35326667,11.3763333 Z M8.45793333,12.1807333 L17.4644667,6.6336 C17.6263333,6.5342 17.7928667,6.75306667 17.6538667,6.882 L10.2208667,13.7913333 C9.9596,14.0345333 9.79106667,14.36 9.74333333,14.7132667 L9.49013333,16.5896667 C9.4566,16.8402 9.10466667,16.8650667 9.03553333,16.6226 L8.06173333,13.2009333 C7.9502,12.8106667 8.11273333,12.3938 8.45793333,12.1807333 Z" id="XMLID_497_"></path>
                        </g>
                    </g>
                </g>
            </g>
        </g>
    </g>
</svg>